class FunDemo{
        public static void main(String[]args){
                Fun();
                FunDemo obj=new FunDemo();
        }

        static void Fun(){
                System.out.println("In fun");

        }

}

o/p:
In fun