import java.io.*;
class Digitcount{
                public static void main(String[]args)throws IOException{
                BufferedReader br=new BufferedReader(new InputStreamReader(System.in));

                System.out.println("Enter size");
                int size=Integer.parseInt(br.readLine());
                int arr1[]=new int[size];
                int arr2[]=new int[size];
                System.out.println("enter elements 1");
                 for(int i=0;i<size;i++){
                arr1[i]=Integer.parseInt(br.readLine());
                 }
                System.out.println("enter element 2");
                for (int i=0;i<size;i++){
                 arr2[i]=Integer.parseInt(br.readLine());
                  }
                System.out.println("common elements");
                for(int i=0;i<size;i++){
                 for(int j=0;j<size;j++){
                         if (arr1[i]==arr2[j]){

                 System.out.println(arr1[i]);
                }
                 }
                }
                }
}